<svg width="40" height="40" viewBox="0 0 40 40"  xmlns="http://www.w3.org/2000/svg">
<rect x="0.5" y="0.5" width="34.5556" height="34.5556" rx="2.5" />
<line x1="5.92578" y1="8.38867" x2="28.148" y2="8.38867" />
<line x1="5.92578" y1="12.1543" x2="28.148" y2="12.1543" />
<line x1="5.92578" y1="15.9209" x2="28.148" y2="15.9209" />
<line x1="5.92578" y1="19.6865" x2="28.148" y2="19.6865" />
<circle cx="30.3708" cy="30.3704" r="8.87963" stroke-width="1.5"/>
<path d="M25.001 30.1108H35.001" stroke-width="2"/>
<path d="M30.001 35L30.1118 25.1853" stroke-width="2"/>
</svg>
