<svg width="28" height="28" viewBox="0 0 28 28" xmlns="http://www.w3.org/2000/svg">
<path d="M27.9004 13.95C27.9004 13.1769 27.2736 12.55 26.5004 12.55H8.10599C6.78101 12.55 6.19739 10.8802 7.23389 10.0549L15.1546 3.74761C15.8099 3.22581 15.8634 2.2492 15.269 1.65898L14.8903 1.28301C14.343 0.739576 13.4593 0.741138 12.9139 1.28651L0.890339 13.3101C0.343605 13.8568 0.343606 14.7433 0.89034 15.29L12.9104 27.3101C13.4572 27.8568 14.3436 27.8568 14.8903 27.3101L15.3145 26.8859C15.8854 26.315 15.8564 25.3809 15.2513 24.8465L7.07053 17.6228C6.08091 16.7489 6.73996 15.1165 8.0589 15.1747L26.4387 15.9856C27.2353 16.0207 27.9004 15.3843 27.9004 14.5869V13.95Z" />
</svg>
