<svg width="18" height="18" viewBox="0 0 18 18" xmlns="http://www.w3.org/2000/svg">
<path d="M12.9383 10.9522H12.1672L11.8939 10.6887C12.8505 9.57594 13.4263 8.13134 13.4263 6.55985C13.4263 3.05573 10.586 0.215332 7.08183 0.215332C3.5777 0.215332 0.737305 3.05573 0.737305 6.55985C0.737305 10.064 3.5777 12.9044 7.08183 12.9044C8.65332 12.9044 10.0979 12.3285 11.2106 11.3719L11.4742 11.6452V12.4163L16.3546 17.287L17.8089 15.8326L12.9383 10.9522ZM7.08183 10.9522C4.65139 10.9522 2.68947 8.99029 2.68947 6.55985C2.68947 4.12941 4.65139 2.16749 7.08183 2.16749C9.51227 2.16749 11.4742 4.12941 11.4742 6.55985C11.4742 8.99029 9.51227 10.9522 7.08183 10.9522Z"/>
</svg>
