<svg width="39" height="41" viewBox="0 0 39 41" fill="none" xmlns="http://www.w3.org/2000/svg">
<path d="M17.2306 3.12642C16.6908 3.82148 16.5216 4.25443 16.2047 5.76986C15.9697 6.90159 15.9044 7.40419 15.9227 7.91866C15.96 8.94179 16.1999 9.54726 17.6498 12.2352C18.3423 13.5127 18.4696 13.8016 18.3604 13.8368C18.327 13.8479 18.2707 13.9093 18.2292 13.9692C18.1468 14.1098 17.5726 14.441 17.1142 14.6205C16.7199 14.7747 16.4782 14.7899 14.8372 14.7436C13.5288 14.7095 13.3211 14.7078 13.3547 14.7495C13.3625 14.7591 13.9501 14.8511 14.6625 14.9534C15.3756 15.05 16.0431 15.1622 16.1448 15.1965C16.2466 15.2308 16.6167 15.3025 16.9624 15.357C18.2213 15.5528 18.3637 15.6178 18.7765 16.1685C19.0152 16.4839 19.0469 16.5429 19.108 16.8218C19.1814 17.1488 19.1555 17.6937 19.0485 17.9283C19.009 18.0237 18.8855 18.1657 18.6882 18.3409C18.4351 18.5716 18.3595 18.6221 18.1565 18.6853C17.7191 18.832 17.4967 18.858 16.6843 18.8416C16.243 18.8326 15.8674 18.8394 15.8482 18.8549C15.8322 18.8679 16.1385 18.9064 16.5355 18.9458C16.9332 18.9795 17.3509 19.0445 17.4662 19.0891C17.6711 19.1724 17.682 19.1794 18.0572 19.6705C18.4201 20.1397 18.4447 20.1833 18.5011 20.4236C18.5726 20.7417 18.4874 21.4033 18.3505 21.5878C18.2994 21.6556 18.1726 21.8002 18.0612 21.9113L17.862 22.1038L18.0764 22.1531C18.4176 22.2217 18.5472 22.297 18.7257 22.5181C18.9812 22.8412 19.1957 23.2184 19.241 23.4253C19.2929 23.6798 19.2544 24.1501 19.1406 24.5861C19.0855 24.7998 19.0632 24.9819 19.0904 25.0288C19.1144 25.0782 19.2387 25.2584 19.37 25.4276C19.6469 25.7969 19.7005 26.0076 19.6212 26.3945C19.5268 26.8677 19.537 26.8541 18.6814 27.5447C17.9507 28.1345 17.8937 28.1753 17.506 28.3506C17.2813 28.4526 16.8789 28.6557 16.603 28.799C15.6744 29.2944 15.4407 29.2344 16.3203 28.7308C17.8331 27.8642 18.6119 27.2357 18.8718 26.666C19.0368 26.2999 19.0784 26.1023 19.0215 25.8942C18.9417 25.5986 18.6775 25.4679 18.1978 25.49C17.9328 25.5027 14.3563 26.2779 13.4607 26.5191C12.1945 26.8585 11.3333 27.162 10.8348 27.4426C10.489 27.6371 10.3343 27.8519 10.1783 28.3537C9.97276 29.017 10.0868 29.5124 10.5243 29.8315C10.7902 30.0297 11.6032 30.4796 12.1665 30.7447C12.7272 31.0066 13.5426 31.2693 14.364 31.4477C16.4416 31.9037 17.7892 31.9538 20.6258 31.6912C23.1376 31.4525 24.6693 31.0683 27.1019 30.0627C28.8668 29.3314 31.1146 28.7132 33.5491 28.2935C34.0054 28.2162 34.3035 28.1397 34.3644 28.0905C34.6464 27.8629 34.893 26.5948 34.8487 25.5826C34.8146 24.6945 34.7134 24.1888 34.4043 23.3797C34.0737 22.4981 33.9997 22.0392 34.0308 21.0614C34.0594 20.2445 34.0756 20.1203 34.25 19.5561C34.335 19.2811 34.3936 19.0062 34.3792 18.949C34.3419 18.8044 34.2421 18.7792 33.6393 18.7471C30.0657 18.562 28.9901 18.3769 27.5336 17.7002C26.4515 17.1923 25.8237 16.7359 25.1398 15.9542C24.6362 15.3762 24.3144 14.8792 23.699 13.7299C23.0758 12.5711 22.8299 12.2139 22.1133 11.4638C21.4529 10.7637 20.4164 9.49927 20.165 9.08295C19.9363 8.70125 19.7535 8.21902 19.4336 7.12766C18.9119 5.34705 18.8195 4.81298 18.869 3.91038C18.9313 2.8598 18.7414 2.52618 18.0795 2.52585C17.9065 2.52789 17.8487 2.54808 17.6577 2.6917C17.5269 2.79196 17.3502 2.96639 17.2306 3.12642Z" fill="url(#paint0_linear_638_5302)"/>
<path d="M9.14492 15.39C8.95271 15.7092 8.71096 16.4654 8.67991 16.8662C8.63414 17.4324 8.79752 17.8774 9.1277 18.0767C9.40822 18.2472 9.74227 18.3004 10.6995 18.3322C11.2102 18.3486 12.0272 18.3772 12.5116 18.3938C15.0821 18.4835 17.2164 18.5443 17.4434 18.5305C17.7823 18.511 18.0418 18.4391 18.2612 18.3044C18.4209 18.2072 18.4516 18.1665 18.5681 17.8978C18.7209 17.5363 18.76 17.3619 18.7503 17.0416C18.7465 16.9123 18.7465 16.7747 18.756 16.7406C18.7932 16.5571 18.5349 16.1781 18.255 16.0018C18.1641 15.9482 17.9675 15.8686 17.8104 15.8314C17.4228 15.7314 14.1026 15.2571 13.4463 15.2047C13.1503 15.1789 12.3324 15.077 11.6284 14.9785C10.9185 14.8793 10.2512 14.7935 10.1373 14.7901C9.71723 14.7746 9.4138 14.956 9.14492 15.39Z" fill="url(#paint1_linear_638_5302)"/>
<path d="M8.80937 19.4192C8.4728 19.9661 8.29668 20.8757 8.42454 21.434C8.54919 21.995 8.89573 22.2604 9.55583 22.3045C10.0441 22.339 16.8877 22.0705 17.1993 22.0042C17.3908 21.9661 17.541 21.903 17.677 21.8092C17.8572 21.6849 17.8879 21.6442 17.9916 21.3859C18.1042 21.0992 18.1426 20.9041 18.153 20.504C18.1635 20.1039 17.9833 19.7889 17.6222 19.5776C17.421 19.4595 17.1591 19.4169 16.2597 19.3648C16.0763 19.3541 14.574 19.2436 12.9206 19.1228C9.6599 18.8862 9.61936 18.8818 9.36045 18.9479C9.12594 19.0049 8.99331 19.1225 8.80937 19.4192Z" fill="url(#paint2_linear_638_5302)"/>
<path d="M9.39704 23.6551C9.34144 23.737 9.25476 23.9182 9.19939 24.0528C8.97618 24.6352 8.95165 25.0573 9.12124 25.746C9.26867 26.368 9.55927 26.6362 10.1358 26.6948C10.5039 26.7311 10.1626 26.8001 14.7227 25.755C16.2808 25.397 17.6751 25.0655 17.8209 25.0166C18.194 24.8954 18.3587 24.7519 18.5032 24.4129C18.658 24.0604 18.7033 23.6904 18.6248 23.3833C18.5737 23.1758 18.5251 23.0827 18.2883 22.7763L18.0115 22.4071L17.7425 22.3754C17.5925 22.3536 17.361 22.3552 17.2209 22.3784C16.9175 22.4221 16.6071 22.4769 16.0826 22.5615C15.8647 22.5997 14.4434 22.7732 12.9224 22.9477C11.404 23.1254 10.0631 23.2869 9.9461 23.3125C9.68264 23.3664 9.5165 23.4687 9.39704 23.6551Z" fill="url(#paint3_linear_638_5302)"/>
<defs>
<linearGradient id="paint0_linear_638_5302" x1="36.9519" y1="52.1566" x2="19.9573" y2="14.7464" gradientUnits="userSpaceOnUse">
<stop stop-color="#FFCA8C"/>
<stop offset="1" stop-color="#FFF1A6"/>
</linearGradient>
<linearGradient id="paint1_linear_638_5302" x1="17.948" y1="25.5731" x2="12.8568" y2="15.6791" gradientUnits="userSpaceOnUse">
<stop stop-color="#FFCA8C"/>
<stop offset="1" stop-color="#FFF1A6"/>
</linearGradient>
<linearGradient id="paint2_linear_638_5302" x1="17.0544" y1="28.8259" x2="12.1756" y2="19.6761" gradientUnits="userSpaceOnUse">
<stop stop-color="#FFCA8C"/>
<stop offset="1" stop-color="#FFF1A6"/>
</linearGradient>
<linearGradient id="paint3_linear_638_5302" x1="16.7143" y1="31.6421" x2="12.1928" y2="23.8692" gradientUnits="userSpaceOnUse">
<stop stop-color="#FFCA8C"/>
<stop offset="1" stop-color="#FFF1A6"/>
</linearGradient>
</defs>
</svg>
